Cómo hacer mapas con R y tidyverse | Patricio R Estévez-Soto
…
datos_mun <- read_csv("https://raw.githubusercontent.com/prestevez/covid-19-mx-map/master/datos_covid/Casos_Diarios_Estado_Nacional_Confirmados.csv")

Parsed with column specification:
cols(
  .default = col_double(),
  cve_ent = col_character(),
  nombre = col_character()
)

See spec(...) for full column specifications.

datos_mun

# A tibble: 2,457 x 54
   cve_ent poblacion nombre `26-02-2020` `27-02-2020` `28-02-2020` `29-02-2020` `01-03-2020` `02-03-2020`
   <chr>       <dbl> <chr>         <dbl>        <dbl>        <dbl>        <dbl>        <dbl>        <dbl>
 1 01001      961977 Aguas…            0            0            0            0            0            0
 2 01002       50864 Asien…            0            0            0            0            0            0
 3 01003       60760 Calvi…            0            0            0            0            0            0
 4 01004       16918 Cosio             0            0            0            0            0            0
 5 01005      130184 Jesus…            0            0            0            0            0            0
 6 01006       50032 Pabel…            0            0            0            0            0            0
 7 01007       57981 Rinco…            0            0            0            0            0            0
 8 01008        9661 San J…            0            0            0            0            0            0
 9 01009       22743 Tepez…            0            0            0            0            0            0
10 01010       21947 El Ll…            0            0            0            0            0            0
# … with 2,447 more rows, and 45 more variables: `03-03-2020` <dbl>, `04-03-2020` <dbl>, `05-03-2020` <dbl>,
#   `06-03-2020` <dbl>, `07-03-2020` <dbl>, `08-03-2020` <dbl>, `09-03-2020` <dbl>, `10-03-2020` <dbl>,
#   `11-03-2020` <dbl>, `12-03-2020` <dbl>, `13-03-2020` <dbl>, `14-03-2020` <dbl>, `15-03-2020` <dbl>,
#   `16-03-2020` <dbl>, `17-03-2020` <dbl>, `18-03-2020` <dbl>, `19-03-2020` <dbl>, `20-03-2020` <dbl>,
#   `21-03-2020` <dbl>, `22-03-2020` <dbl>, `23-03-2020` <dbl>, `24-03-2020` <dbl>, `25-03-2020` <dbl>,
#   `26-03-2020` <dbl>, `27-03-2020` <dbl>, `28-03-2020` <dbl>, `29-03-2020` <dbl>, `30-03-2020` <dbl>,
#   `31-03-2020` <dbl>, `01-04-2020` <dbl>, `02-04-2020` <dbl>, `03-04-2020` <dbl>, `04-04-2020` <dbl>,
#   `05-04-2020` <dbl>, `06-04-2020` <dbl>, `07-04-2020` <dbl>, `08-04-2020` <dbl>, `09-04-2020` <dbl>,
#   `10-04-2020` <dbl>, `11-04-2020` <dbl>, `12-04-2020` <dbl>, `13-04-2020` <dbl>, `14-04-2020` <dbl>,
…
La tabla con casos confirmados de covid-19 por municipio contiene una línea por municipio, columnas con la clave geoestadística, población, el nombre y una columna por día de observación. Como queremos una columna con el número de casos por municipio, necesitamos agregar las columnas de cada día:

casos_municipio <- datos_mun %>%
  # pasamos del formato ancho al largo
  pivot_longer(-c(cve_ent, poblacion, nombre),
               names_to = "día",
               values_to = "casos") %>%
  # agrupamos por municpio
  group_by(cve_ent, poblacion, nombre) %>%
  # sumamos los casos
  summarise(total_casos = sum(casos))

casos_municipio

# A tibble: 2,457 x 4
# Groups:   cve_ent, poblacion [2,457]
   cve_ent poblacion nombre              total_casos
   <chr>       <dbl> <chr>                     <dbl>
 1 01001      961977 Aguascalientes               60
 2 01002       50864 Asientos                      1
 3 01003       60760 Calvillo                      0
 4 01004       16918 Cosio                         0
 5 01005      130184 Jesus Maria                   1
 6 01006       50032 Pabellon de Arteaga           5
 7 01007       57981 Rincon de Romos               2
 8 01008        9661 San Jose de Gracia            0
 9 01009       22743 Tepezala                      1
10 01010       21947 El Llano                      1
# … with 2,447 more rows
…
